…
Problem 9. (5 points) Among the YNP wolf packs, which one has had the highest overall persistence `persisty1` for the years represented in the data? Look this pack up online and tell me what is unique about its behavior- specifically, what prey animals does this pack specialize on?  

The wolf pack with the highest overall persistence was the mollies pack. This pack specialized on hunting bison. 


```r
ynp %>%
  filter(!is.na(persisty1)) %>%
  group_by(pack) %>%
  summarise(persistence = sum(persisty1)) %>%
  arrange(desc(persistence))
```

```
## # A tibble: 46 × 2
##    pack        persistence
##    <chr>             <int>
##  1 mollies              26
##  2 cougar               20
##  3 yelldelta            18
##  4 druid                13
##  5 leopold              12
##  6 agate                10
##  7 8mile                 9
##  8 canyon                9
##  9 gibbon/mary           9
## 10 nezperce              9
## # ℹ 36 more rows
```
…
