…
2. (1 point) Notice that there are some incidents identified as "NOT COUNTED". These should be removed from the data because they were either not sharks, unverified, or were provoked. It's OK to replace the `sharks` object.


```r
sharks_counted <- filter(sharks, incident_num != "NOT COUNTED")
sharks_counted
```

```
## # A tibble: 202 × 16
##    incident_num month   day  year time    county     location mode  injury depth
##    <chr>        <dbl> <dbl> <dbl> <chr>   <chr>      <chr>    <chr> <chr>  <chr>
##  1 1               10     8  1950 12:00   San Diego  Imperia… Swim… major  surf…
##  2 2                5    27  1952 14:00   San Diego  Imperia… Swim… minor  surf…
##  3 3               12     7  1952 14:00   Monterey   Lovers … Swim… fatal  surf…
##  4 4                2     6  1955 12:00   Monterey   Pacific… Free… minor  surf…
##  5 5                8    14  1956 16:30   San Luis … Pismo B… Swim… major  surf…
##  6 6                4    28  1957 13:30   San Luis … Morro B… Swim… fatal  surf…
##  7 7               10    12  1958 Unknown San Diego  Coronad… Swim… major  surf…
##  8 8                5     7  1959 17:30   San Franc… Baker B… Swim… fatal  surf…
##  9 9                6    14  1959 17:00   San Diego  La Jolla Free… fatal  surf…
## 10 10               7    28  1959 19:30   San Diego  La Jolla Free… minor  surf…
## # ℹ 192 more rows
## # ℹ 6 more variables: species <chr>, comment <chr>, longitude <chr>,
## #   latitude <dbl>, confirmed_source <chr>, wfl_case_number <chr>
```
…
5. (3 points) How do the number and types of injuries compare by county? Make a table (not a plot) that shows the number of injury types by county. Which county has the highest number of fatalities?  

San Luis Obispo has the highest number of fatal shark injuries. 


```r
sharks_counted %>%
  group_by(county) %>%
  count(injury)%>%
  pivot_wider(names_from = "injury", values_from = "n")%>%
  arrange(desc(fatal))
```

```
## # A tibble: 21 × 5
## # Groups:   county [21]
##    county              minor  none major fatal
##    <chr>               <int> <int> <int> <int>
##  1 San Luis Obispo         1     7     3     3
##  2 Monterey                2     3     8     2
##  3 San Diego               8     9     4     2
##  4 Santa Barbara           6     9     2     2
##  5 Island - San Miguel     2    NA     2     1
##  6 Los Angeles             6     2    NA     1
##  7 Mendocino               1    NA     3     1
##  8 San Francisco          NA     1    NA     1
##  9 San Mateo               4    12     1     1
## 10 Santa Cruz              3     8     3     1
## # ℹ 11 more rows
```
…
